^C:\USERS\VOID\DESKTOP\DRAGONLAKE_TEST_TASK\PACKAGE_WIN\X64\DEBUG\GAME.OBJ|C:\USERS\VOID\DESKTOP\DRAGONLAKE_TEST_TASK\PACKAGE_WIN\X64\DEBUG\GAMEOBJECT.OBJ|C:\USERS\VOID\DESKTOP\DRAGONLAKE_TEST_TASK\PACKAGE_WIN\X64\DEBUG\GAMEUTILS.OBJ|C:\USERS\VOID\DESKTOP\DRAGONLAKE_TEST_TASK\PACKAGE_WIN\X64\DEBUG\GREENISLANDFRAMEWORK.OBJ
/OUT:"C:\USERS\VOID\DESKTOP\DRAGONLAKE_TEST_TASK\PACKAGE_WIN\X64\DEBUG\PACKAGEWIN.EXE" /INCREMENTAL /NOLOGO /LIBPATH:C:\USERS\VOID\DESKTOP\DRAGONLAKE_TEST_TASK\PACKAGE_WIN\ C:\USERS\VOID\DESKTOP\DRAGONLAKE_TEST_TASK\PACKAGE_WIN\FRAMEWORKDEBUG_X64.LIB KERNEL32.LIB USER32.LIB GDI32.LIB WINSPOOL.LIB COMDLG32.LIB ADVAPI32.LIB SHELL32.LIB OLE32.LIB OLEAUT32.LIB UUID.LIB ODBC32.LIB ODBCCP32.LIB /MANIFEST /MANIFESTUAC:"level='asInvoker' uiAccess='false'" /manifest:embed /DEBUG:FASTLINK /PDB:"C:\USERS\VOID\DESKTOP\DRAGONLAKE_TEST_TASK\PACKAGE_WIN\X64\DEBUG\PACKAGEWIN.PDB" /TLBID:1 /DYNAMICBASE /NXCOMPAT /IMPLIB:"C:\USERS\VOID\DESKTOP\DRAGONLAKE_TEST_TASK\PACKAGE_WIN\X64\DEBUG\PACKAGEWIN.LIB" /MACHINE:X64 X64\DEBUG\GAME.OBJ
X64\DEBUG\GAMEOBJECT.OBJ
X64\DEBUG\GAMEUTILS.OBJ
X64\DEBUG\GREENISLANDFRAMEWORK.OBJ
