^C:\USERS\VOID\DESKTOP\DRAGONLAKE_TEST_TASK\PACKAGE_WIN\X64\DEBUG\GAME.OBJ|C:\USERS\VOID\DESKTOP\DRAGONLAKE_TEST_TASK\PACKAGE_WIN\X64\DEBUG\GAMEOBJECT.OBJ|C:\USERS\VOID\DESKTOP\DRAGONLAKE_TEST_TASK\PACKAGE_WIN\X64\DEBUG\GAMEUTILS.OBJ|C:\USERS\VOID\DESKTOP\DRAGONLAKE_TEST_TASK\PACKAGE_WIN\X64\DEBUG\GREENISLANDFRAMEWORK.OBJ
C:\USERS\VOID\DESKTOP\DRAGONLAKE_TEST_TASK\PACKAGE_WIN\FRAMEWORKDEBUG_X64.LIB
C:\PROGRAM FILES (X86)\WINDOWS KITS\10\LIB\10.0.18362.0\UM\X64\KERNEL32.LIB
C:\PROGRAM FILES (X86)\WINDOWS KITS\10\LIB\10.0.18362.0\UM\X64\USER32.LIB
C:\PROGRAM FILES (X86)\WINDOWS KITS\10\LIB\10.0.18362.0\UM\X64\GDI32.LIB
C:\PROGRAM FILES (X86)\WINDOWS KITS\10\LIB\10.0.18362.0\UM\X64\WINSPOOL.LIB
C:\PROGRAM FILES (X86)\WINDOWS KITS\10\LIB\10.0.18362.0\UM\X64\COMDLG32.LIB
C:\PROGRAM FILES (X86)\WINDOWS KITS\10\LIB\10.0.18362.0\UM\X64\ADVAPI32.LIB
C:\PROGRAM FILES (X86)\WINDOWS KITS\10\LIB\10.0.18362.0\UM\X64\SHELL32.LIB
C:\PROGRAM FILES (X86)\WINDOWS KITS\10\LIB\10.0.18362.0\UM\X64\OLE32.LIB
C:\PROGRAM FILES (X86)\WINDOWS KITS\10\LIB\10.0.18362.0\UM\X64\OLEAUT32.LIB
C:\PROGRAM FILES (X86)\WINDOWS KITS\10\LIB\10.0.18362.0\UM\X64\UUID.LIB
C:\PROGRAM FILES (X86)\WINDOWS KITS\10\LIB\10.0.18362.0\UM\X64\ODBC32.LIB
C:\PROGRAM FILES (X86)\WINDOWS KITS\10\LIB\10.0.18362.0\UM\X64\ODBCCP32.LIB
C:\USERS\VOID\DESKTOP\DRAGONLAKE_TEST_TASK\PACKAGE_WIN\X64\DEBUG\GAME.OBJ
C:\USERS\VOID\DESKTOP\DRAGONLAKE_TEST_TASK\PACKAGE_WIN\X64\DEBUG\GAMEOBJECT.OBJ
C:\USERS\VOID\DESKTOP\DRAGONLAKE_TEST_TASK\PACKAGE_WIN\X64\DEBUG\GAMEUTILS.OBJ
C:\USERS\VOID\DESKTOP\DRAGONLAKE_TEST_TASK\PACKAGE_WIN\X64\DEBUG\GREENISLANDFRAMEWORK.OBJ
C:\WINDOWS\GLOBALIZATION\SORTING\SORTDEFAULT.NLS
C:\PROGRAM FILES (X86)\MICROSOFT VISUAL STUDIO\2019\COMMUNITY\VC\TOOLS\MSVC\14.26.28801\LIB\X64\MSVCPRTD.LIB
C:\PROGRAM FILES (X86)\MICROSOFT VISUAL STUDIO\2019\COMMUNITY\VC\TOOLS\MSVC\14.26.28801\LIB\X64\MSVCRTD.LIB
C:\PROGRAM FILES (X86)\MICROSOFT VISUAL STUDIO\2019\COMMUNITY\VC\TOOLS\MSVC\14.26.28801\LIB\X64\OLDNAMES.LIB
C:\PROGRAM FILES (X86)\MICROSOFT VISUAL STUDIO\2019\COMMUNITY\VC\TOOLS\MSVC\14.26.28801\LIB\X64\VCRUNTIMED.LIB
C:\PROGRAM FILES (X86)\WINDOWS KITS\10\LIB\10.0.18362.0\UCRT\X64\UCRTD.LIB
C:\PROGRAM FILES (X86)\MICROSOFT VISUAL STUDIO\2019\COMMUNITY\VC\TOOLS\MSVC\14.26.28801\BIN\HOSTX86\X64\CVTRES.EXE
C:\WINDOWS\SYSTEM32\TZRES.DLL
